R for Social Scientists: Data Wrangling with dplyr and tidyr
…
To choose rows based on specific criteria, we can use the filter() function. The argument after the dataframe is the condition we want our final dataframe to adhere to (e.g. village name is Chirodzo):

R

# filters observations where village name is "Chirodzo" 
filter(interviews, village == "Chirodzo")

OUTPUT

# A tibble: 39 × 14
   key_ID village  interview_date      no_membrs years_liv respo…¹ rooms memb_…²
    <dbl> <chr>    <dttm>                  <dbl>     <dbl> <chr>   <dbl> <chr>  
 1      8 Chirodzo 2016-11-16 00:00:00        12        70 burntb…     3 yes    
 2      9 Chirodzo 2016-11-16 00:00:00         8         6 burntb…     1 no     
 3     10 Chirodzo 2016-12-16 00:00:00        12        23 burntb…     5 no     
 4     34 Chirodzo 2016-11-17 00:00:00         8        18 burntb…     3 yes    
 5     35 Chirodzo 2016-11-17 00:00:00         5        45 muddaub     1 yes    
 6     36 Chirodzo 2016-11-17 00:00:00         6        23 sunbri…     1 yes    
 7     37 Chirodzo 2016-11-17 00:00:00         3         8 burntb…     1 <NA>   
 8     43 Chirodzo 2016-11-17 00:00:00         7        29 muddaub     1 no     
 9     44 Chirodzo 2016-11-17 00:00:00         2         6 muddaub     1 <NA>   
10     45 Chirodzo 2016-11-17 00:00:00         9         7 muddaub     1 no     
# … with 29 more rows, 6 more variables: affect_conflicts <chr>,
#   liv_count <dbl>, items_owned <chr>, no_meals <dbl>, months_lack_food <chr>,
#   instanceID <chr>, and abbreviated variable names ¹​respondent_wall_type,
#   ²​memb_assoc
…
In an “or” statement, observations must meet at least one of the specified conditions. To form “or” statements we use the logical operator for “or,” which is the vertical bar (|):

R

# filters observations with "|" logical operator
# output dataframe satisfies AT LEAST ONE of the specified conditions
filter(interviews, village == "Chirodzo" | village == "Ruaca")

OUTPUT

# A tibble: 88 × 14
   key_ID village  interview_date      no_membrs years_liv respo…¹ rooms memb_…²
    <dbl> <chr>    <dttm>                  <dbl>     <dbl> <chr>   <dbl> <chr>  
 1      8 Chirodzo 2016-11-16 00:00:00        12        70 burntb…     3 yes    
 2      9 Chirodzo 2016-11-16 00:00:00         8         6 burntb…     1 no     
 3     10 Chirodzo 2016-12-16 00:00:00        12        23 burntb…     5 no     
 4     23 Ruaca    2016-11-21 00:00:00        10        20 burntb…     4 <NA>   
 5     24 Ruaca    2016-11-21 00:00:00         6         4 burntb…     2 no     
 6     25 Ruaca    2016-11-21 00:00:00        11         6 burntb…     3 no     
 7     26 Ruaca    2016-11-21 00:00:00         3        20 burntb…     2 no     
 8     27 Ruaca    2016-11-21 00:00:00         7        36 burntb…     2 <NA>   
 9     28 Ruaca    2016-11-21 00:00:00         2         2 muddaub     1 no     
10     29 Ruaca    2016-11-21 00:00:00         7        10 burntb…     2 yes    
# … with 78 more rows, 6 more variables: affect_conflicts <chr>,
#   liv_count <dbl>, items_owned <chr>, no_meals <dbl>, months_lack_food <chr>,
#   instanceID <chr>, and abbreviated variable names ¹​respondent_wall_type,
#   ²​memb_assoc
…
This is handy, but can be difficult to read if too many functions are nested, as R evaluates the expression from the inside out (in this case, filtering, then selecting).

The last option, pipes, are a recent addition to R. Pipes let you take the output of one function and send it directly to the next, which is useful when you need to do many things to the same dataset. Pipes in R look like %>% and are made available via the magrittr package, installed automatically with dplyr. If you use RStudio, you can type the pipe with:

Ctrl + Shift + M if you have a PC or Cmd + Shift + M if you have a Mac.

R

interviews %>%
    filter(village == "Chirodzo") %>%
    select(village:respondent_wall_type)

OUTPUT

# A tibble: 39 × 5
   village  interview_date      no_membrs years_liv respondent_wall_type
   <chr>    <dttm>                  <dbl>     <dbl> <chr>               
 1 Chirodzo 2016-11-16 00:00:00        12        70 burntbricks         
 2 Chirodzo 2016-11-16 00:00:00         8         6 burntbricks         
 3 Chirodzo 2016-12-16 00:00:00        12        23 burntbricks         
 4 Chirodzo 2016-11-17 00:00:00         8        18 burntbricks         
 5 Chirodzo 2016-11-17 00:00:00         5        45 muddaub             
 6 Chirodzo 2016-11-17 00:00:00         6        23 sunbricks           
 7 Chirodzo 2016-11-17 00:00:00         3         8 burntbricks         
 8 Chirodzo 2016-11-17 00:00:00         7        29 muddaub             
 9 Chirodzo 2016-11-17 00:00:00         2         6 muddaub             
10 Chirodzo 2016-11-17 00:00:00         9         7 muddaub             
# … with 29 more rows
…
Some may find it helpful to read the pipe like the word “then”. For instance, in the above example, we take the dataframe interviews, then we filter for rows with village == "Chirodzo", then we select columns village:respondent_wall_type. The dplyr functions by themselves are somewhat simple, but by combining them into linear workflows with the pipe, we can accomplish more complex data wrangling operations.

If we want to create a new object with this smaller version of the data, we can assign it a new name:

R

interviews_ch <- interviews %>%
    filter(village == "Chirodzo") %>%
    select(village:respondent_wall_type)

interviews_ch

OUTPUT

# A tibble: 39 × 5
   village  interview_date      no_membrs years_liv respondent_wall_type
   <chr>    <dttm>                  <dbl>     <dbl> <chr>               
 1 Chirodzo 2016-11-16 00:00:00        12        70 burntbricks         
 2 Chirodzo 2016-11-16 00:00:00         8         6 burntbricks         
 3 Chirodzo 2016-12-16 00:00:00        12        23 burntbricks         
 4 Chirodzo 2016-11-17 00:00:00         8        18 burntbricks         
 5 Chirodzo 2016-11-17 00:00:00         5        45 muddaub             
 6 Chirodzo 2016-11-17 00:00:00         6        23 sunbricks           
 7 Chirodzo 2016-11-17 00:00:00         3         8 burntbricks         
 8 Chirodzo 2016-11-17 00:00:00         7        29 muddaub             
 9 Chirodzo 2016-11-17 00:00:00         2         6 muddaub             
10 Chirodzo 2016-11-17 00:00:00         9         7 muddaub             
# … with 29 more rows
…
Exercise

Using pipes, subset the interviews data to include interviews where respondents were members of an irrigation association (memb_assoc) and retain only the columns affect_conflicts, liv_count, and no_meals.

  Show me the solution

R

interviews %>%
    filter(memb_assoc == "yes") %>%
    select(affect_conflicts, liv_count, no_meals)

OUTPUT

# A tibble: 33 × 3
   affect_conflicts liv_count no_meals
   <chr>                <dbl>    <dbl>
 1 once                     3        2
 2 never                    2        2
 3 never                    2        3
 4 once                     3        2
 5 frequently               1        3
 6 more_once                5        2
 7 more_once                3        2
 8 more_once                2        3
 9 once                     3        3
10 never                    3        3
# … with 23 more rows

Mutate

Frequently you’ll want to create new columns based on the values in existing columns, for example to do unit conversions, or to find the ratio of values in two columns. For this we’ll use mutate().

We might be interested in the ratio of number of household members to rooms used for sleeping (i.e. avg number of people per room):

R

interviews %>%
    mutate(people_per_room = no_membrs / rooms)

OUTPUT

# A tibble: 131 × 15
   key_ID village  interview_date      no_membrs years_liv respo…¹ rooms memb_…²
    <dbl> <chr>    <dttm>                  <dbl>     <dbl> <chr>   <dbl> <chr>  
 1      1 God      2016-11-17 00:00:00         3         4 muddaub     1 <NA>   
 2      1 God      2016-11-17 00:00:00         7         9 muddaub     1 yes    
 3      3 God      2016-11-17 00:00:00        10        15 burntb…     1 <NA>   
 4      4 God      2016-11-17 00:00:00         7         6 burntb…     1 <NA>   
 5      5 God      2016-11-17 00:00:00         7        40 burntb…     1 <NA>   
 6      6 God      2016-11-17 00:00:00         3         3 muddaub     1 <NA>   
 7      7 God      2016-11-17 00:00:00         6        38 muddaub     1 no     
 8      8 Chirodzo 2016-11-16 00:00:00        12        70 burntb…     3 yes    
 9      9 Chirodzo 2016-11-16 00:00:00         8         6 burntb…     1 no     
10     10 Chirodzo 2016-12-16 00:00:00        12        23 burntb…     5 no     
# … with 121 more rows, 7 more variables: affect_conflicts <chr>,
#   liv_count <dbl>, items_owned <chr>, no_meals <dbl>, months_lack_food <chr>,
#   instanceID <chr>, people_per_room <dbl>, and abbreviated variable names
#   ¹​respondent_wall_type, ²​memb_assoc

We may be interested in investigating whether being a member of an irrigation association had any effect on the ratio of household members to rooms. To look at this relationship, we will first remove data from our dataset where the respondent didn’t answer the question of whether they were a member of an irrigation association. These cases are recorded as “NULL” in the dataset.

To remove these cases, we could insert a filter() in the chain:

R

interviews %>%
    filter(!is.na(memb_assoc)) %>%
    mutate(people_per_room = no_membrs / rooms)

OUTPUT

# A tibble: 92 × 15
   key_ID village  interview_date      no_membrs years_liv respo…¹ rooms memb_…²
    <dbl> <chr>    <dttm>                  <dbl>     <dbl> <chr>   <dbl> <chr>  
 1      1 God      2016-11-17 00:00:00         7         9 muddaub     1 yes    
 2      7 God      2016-11-17 00:00:00         6        38 muddaub     1 no     
 3      8 Chirodzo 2016-11-16 00:00:00        12        70 burntb…     3 yes    
 4      9 Chirodzo 2016-11-16 00:00:00         8         6 burntb…     1 no     
 5     10 Chirodzo 2016-12-16 00:00:00        12        23 burntb…     5 no     
 6     12 God      2016-11-21 00:00:00         7        20 burntb…     3 yes    
 7     13 God      2016-11-21 00:00:00         6         8 burntb…     1 no     
 8     15 God      2016-11-21 00:00:00         5        30 sunbri…     2 yes    
 9     21 God      2016-11-21 00:00:00         8        20 burntb…     1 no     
10     24 Ruaca    2016-11-21 00:00:00         6         4 burntb…     2 no     
# … with 82 more rows, 7 more variables: affect_conflicts <chr>,
#   liv_count <dbl>, items_owned <chr>, no_meals <dbl>, months_lack_food <chr>,
#   instanceID <chr>, people_per_room <dbl>, and abbreviated variable names
#   ¹​respondent_wall_type, ²​memb_assoc
…
Long and wide data formats

In the interviews data, each row contains the values of variables associated with each record collected (each interview in the villages), where it is stated that the key_ID was “added to provide a unique Id for each observation” and the instance_ID “does this as well but it is not as convenient to use.”

However, with some inspection, we notice that there are more than one row in the dataset with the same key_ID (as seen below). However, the instanceIDs associated with these duplicate key_IDs are not the same. Thus, we should think of instanceID as the unique identifier for observations!

R

interviews %>%
  select(key_ID, village, interview_date, instanceID)

OUTPUT

# A tibble: 131 × 4
   key_ID village  interview_date      instanceID                               
    <dbl> <chr>    <dttm>              <chr>                                    
 1      1 God      2016-11-17 00:00:00 uuid:ec241f2c-0609-46ed-b5e8-fe575f6cefef
 2      1 God      2016-11-17 00:00:00 uuid:099de9c9-3e5e-427b-8452-26250e840d6e
 3      3 God      2016-11-17 00:00:00 uuid:193d7daf-9582-409b-bf09-027dd36f9007
 4      4 God      2016-11-17 00:00:00 uuid:148d1105-778a-4755-aa71-281eadd4a973
 5      5 God      2016-11-17 00:00:00 uuid:2c867811-9696-4966-9866-f35c3e97d02d
 6      6 God      2016-11-17 00:00:00 uuid:daa56c91-c8e3-44c3-a663-af6a49a2ca70
 7      7 God      2016-11-17 00:00:00 uuid:ae20a58d-56f4-43d7-bafa-e7963d850844
 8      8 Chirodzo 2016-11-16 00:00:00 uuid:d6cee930-7be1-4fd9-88c0-82a08f90fb5a
 9      9 Chirodzo 2016-11-16 00:00:00 uuid:846103d2-b1db-4055-b502-9cd510bb7b37
10     10 Chirodzo 2016-12-16 00:00:00 uuid:8f4e49bc-da81-4356-ae34-e0d794a23721
# … with 121 more rows
…
